1 10 20
100 200 125
201 210 89
900 1000 174
-900 -1000 -1
0 0 -1
1 1 1
10 1 20
200 100 125
210 201 89
1000 900 174
20000 20001 168
1 2000 182
5 36 112
7 39 112
3 1 8
5 -1 -1
4 9 20
3 3 8
2000 2 182
3 5 8
-4 6 -1
200000 -9 -1
3 3 8
10 101 119
10 102 119
10 103 119
76 5 116
90 58 116
56 66 108
67 69 28
99 81 119
72 68 103
91 7 116
59 56 33
12 35 112
9 44 112
93 68 116
91 10 116
86 78 111
63 7 113
96 12 116
60 80 116
77 42 116
74 20 116
49 34 110
78 97 119
51 50 25
66 91 116
86 60 116
53 2 112
21 64 113
21 74 116
37 5 112
15 15 18
79 18 116
33 75 116
66 57 108
45 12 112
24 58 113
6 7 17
45 30 110
1 6 9
93 64 116
66 100 119
44 12 112
81 80 23
92 20 116
71 19 113
29 90 116
37 97 119
31 71 113
54 4 113
70 7 113
34 64 113
10 69 113
27 55 113
14 58 113
99 11 119
63 80 116
31 76 116
28 78 116
41 68 113
15 13 18
60 30 113
75 66 116
19 23 21
97 82 119
81 67 116
21 24 16
6 1 9
77 83 111
92 56 116
100 43 119
50 93 116
10 4 20
36 3 112
54 98 119
51 35 110
53 91 116
64 73 116
37 33 27
40 89 116
71 74 116
57 49 113
96 17 116
45 7 112
