.....................
----------------------------------------------------------------------
Ran 21 tests in 0.141s

OK
Name             Stmts   Miss Branch BrPart  Cover   Missing
------------------------------------------------------------
Collatz.py          32      0     10      0   100%
TestCollatz.py      91      0      0      0   100%
------------------------------------------------------------
TOTAL              123      0     10      0   100%
